<?xml version="1.0" standalone="no"?>
<!DOCTYPE svg PUBLIC "-//W3C//DTD SVG 20010904//EN"
 "http://www.w3.org/TR/2001/REC-SVG-20010904/DTD/svg10.dtd">
<svg version="1.0" xmlns="http://www.w3.org/2000/svg"
 width="400.000000pt" height="487.000000pt" viewBox="0 0 400.000000 487.000000"
 preserveAspectRatio="xMidYMid meet">
<metadata>
Created by potrace 1.15, written by Peter Selinger 2001-2017
</metadata>
<g transform="translate(0.000000,487.000000) scale(0.100000,-0.100000)"
fill="#000000" stroke="none">
<path d="M3005 4630 c-16 -4 -55 -8 -86 -9 -41 -1 -59 -5 -63 -16 -3 -9 -18
-15 -40 -15 -19 0 -76 -16 -126 -35 -71 -27 -107 -35 -158 -35 -78 -1 -138
-19 -159 -49 -8 -12 -21 -21 -29 -21 -17 0 -50 -18 -78 -43 -12 -10 -48 -31
-81 -47 -77 -37 -115 -69 -115 -98 0 -17 -13 -30 -47 -50 -64 -37 -161 -129
-184 -174 -10 -20 -25 -41 -32 -45 -25 -15 -44 -57 -57 -128 -7 -38 -26 -103
-42 -143 -29 -72 -29 -76 -23 -205 3 -73 6 -143 7 -157 2 -75 19 -319 24 -344
5 -21 3 -27 -6 -21 -9 5 -11 4 -6 -3 4 -6 1 -24 -6 -39 -12 -26 -14 -53 -10
-130 1 -22 20 -54 61 -105 46 -57 60 -83 65 -120 4 -27 11 -48 15 -48 9 0 26
-53 62 -185 24 -91 43 -153 52 -175 18 -45 35 -134 28 -153 -5 -12 -5 -35 0
-50 4 -16 4 -39 -1 -53 -5 -13 -7 -38 -3 -54 4 -21 0 -36 -12 -50 -11 -12 -14
-26 -10 -39 4 -14 1 -23 -9 -27 -14 -5 -14 -8 0 -21 8 -9 16 -14 17 -12 8 12
30 79 37 109 18 78 53 160 73 168 4 2 7 24 7 50 0 28 6 52 17 64 12 13 13 18
3 18 -7 0 -10 3 -7 6 3 4 2 14 -3 23 -6 13 -4 17 10 17 10 0 16 -4 14 -8 -3
-4 0 -8 6 -8 7 0 10 -6 7 -13 -3 -8 3 -20 14 -28 22 -15 25 -29 6 -29 -8 0
-12 -15 -12 -46 0 -36 5 -49 25 -65 l25 -20 -27 7 c-18 4 -28 2 -28 -5 0 -6 5
-11 10 -11 15 0 12 -30 -2 -31 -7 -1 -2 -4 11 -8 28 -8 41 -31 17 -31 -9 0
-16 -5 -16 -11 0 -5 5 -7 12 -3 7 5 8 3 3 -6 -4 -7 -2 -16 6 -22 11 -8 10 -9
-3 -4 -23 7 -23 -12 -2 -42 16 -24 12 -58 -6 -47 -5 3 -10 1 -10 -5 0 -6 -4
-8 -10 -5 -14 9 -13 -8 2 -23 8 -8 9 -12 1 -12 -6 0 -9 -9 -6 -20 3 -11 9 -18
12 -15 4 2 8 -1 8 -8 1 -7 4 -27 9 -46 5 -24 4 -32 -4 -27 -7 4 -10 -8 -8 -38
3 -36 1 -43 -12 -39 -12 5 -14 0 -10 -21 3 -14 1 -29 -4 -32 -4 -3 -6 -10 -3
-15 4 -5 -1 -12 -9 -15 -20 -8 -21 -40 -1 -48 8 -3 12 -12 9 -20 -3 -8 -1 -17
5 -21 6 -3 11 -12 11 -20 0 -16 -60 -75 -76 -75 -6 0 -17 -7 -25 -16 -7 -8
-21 -13 -32 -10 -12 3 -17 0 -14 -8 3 -7 1 -19 -4 -27 -8 -12 -10 -12 -19 1
-5 8 -10 10 -10 4 0 -6 7 -17 15 -24 15 -13 21 -51 8 -49 -20 3 -24 -2 -13
-16 10 -12 10 -18 0 -30 -9 -10 -9 -15 -1 -15 6 0 11 -8 11 -19 0 -13 -10 -20
-31 -25 -47 -9 -51 -8 -39 14 8 14 7 25 -2 40 -9 13 -9 23 -3 28 6 4 11 30 11
58 2 45 -1 53 -22 62 -13 6 -35 29 -49 51 -21 34 -23 44 -14 65 6 13 22 29 34
34 35 16 49 76 28 119 -19 40 -31 49 -46 34 -17 -17 -33 -13 -65 14 -16 13
-32 22 -35 18 -4 -3 -11 6 -16 20 -10 26 -43 51 -55 42 -3 -3 -4 -2 -1 1 2 4
0 15 -6 26 -8 16 -13 17 -25 7 -8 -7 -14 -24 -12 -38 4 -43 -12 -57 -28 -25
-13 24 -12 28 3 39 10 7 14 19 10 29 -4 10 -1 19 9 23 12 4 3 18 -39 62 -31
31 -66 69 -79 85 -17 20 -35 29 -61 31 -20 2 -35 -1 -32 -6 3 -4 -1 -22 -10
-39 -9 -17 -12 -29 -8 -28 4 2 8 -1 8 -7 0 -5 -3 -9 -7 -7 -5 1 -8 -7 -8 -17
0 -12 -8 -21 -22 -24 -13 -2 7 -5 43 -6 50 -1 70 -5 83 -19 15 -18 15 -20 -10
-45 -15 -15 -30 -27 -34 -27 -4 0 -20 -18 -35 -40 -30 -44 -26 -43 -137 -12
-43 12 -58 21 -58 34 0 10 4 18 8 18 5 0 17 15 27 34 11 19 23 33 27 30 4 -3
8 0 8 5 0 6 9 11 19 11 23 0 28 17 27 85 l-1 50 -33 -3 c-56 -4 -240 -164
-257 -222 -4 -14 -20 -45 -35 -70 -59 -94 -150 -284 -150 -313 0 -18 -10 -40
-25 -56 -14 -14 -45 -48 -68 -75 -48 -56 -92 -78 -137 -70 -21 5 -36 2 -48 -9
-10 -9 -57 -25 -106 -37 -104 -24 -128 -35 -124 -58 3 -17 -22 -24 -33 -9 -9
12 -69 -23 -69 -40 0 -7 -6 -13 -13 -13 -15 0 -55 -41 -80 -82 -23 -37 -25
-187 -2 -168 8 6 19 9 24 5 7 -4 8 0 4 11 -5 13 -2 15 18 9 32 -10 34 -12 20
-29 -14 -17 -11 -57 4 -68 6 -5 4 -8 -4 -8 -11 0 -11 -3 3 -13 11 -8 15 -19
10 -30 -7 -18 -24 -23 -24 -7 0 6 -4 10 -10 10 -5 0 -10 -7 -10 -15 0 -8 8
-15 19 -15 22 0 59 -49 39 -51 -7 -1 -16 -1 -20 0 -5 0 -8 -3 -8 -8 0 -11 45
-32 130 -61 36 -12 72 -25 80 -28 30 -10 46 -14 120 -26 41 -7 104 -21 140
-30 52 -13 96 -15 220 -11 85 2 166 5 180 5 70 2 121 31 202 115 44 46 89 96
99 112 43 65 52 73 85 73 23 0 38 -7 52 -25 11 -14 43 -36 71 -48 28 -13 63
-36 78 -51 154 -146 154 -146 188 -146 19 0 37 -4 40 -10 3 -5 27 -20 53 -32
44 -22 58 -23 222 -21 213 3 276 6 405 23 106 13 144 30 215 97 19 17 39 32
43 31 13 -1 99 57 124 84 34 37 83 137 83 172 0 23 10 40 38 67 61 58 80 106
92 232 6 62 18 131 27 155 10 28 13 59 9 90 -11 82 -9 182 4 182 4 0 12 17 18
39 15 48 50 93 65 84 7 -3 9 -3 5 2 -11 11 12 36 25 28 6 -3 7 -1 3 5 -3 6 8
22 26 35 33 25 137 75 170 82 33 7 133 61 157 85 46 45 62 90 71 195 12 139
30 249 42 256 5 3 9 8 8 10 -4 8 11 126 22 167 6 23 15 42 19 42 5 0 8 3 8 8
-4 24 2 42 13 36 7 -4 8 -3 4 4 -4 6 9 33 27 59 33 46 53 90 49 106 -1 4 2 7
8 7 25 0 -9 143 -56 231 -10 19 -17 37 -16 42 1 4 -2 7 -7 7 -11 0 -10 8 12
78 9 29 14 59 11 66 -3 7 2 16 10 19 9 4 16 16 16 27 0 29 34 92 59 110 17 12
21 25 21 76 0 55 -4 68 -37 115 -38 57 -97 214 -86 232 3 5 1 7 -5 3 -17 -10
-45 75 -33 105 14 38 3 129 -22 176 l-21 42 22 24 c12 13 22 32 22 43 0 22 36
49 45 34 12 -20 23 -9 30 31 4 24 12 38 18 36 7 -2 11 -11 11 -20 -1 -9 2 -14
7 -11 5 3 9 0 9 -5 0 -6 4 -11 9 -11 12 0 8 24 -7 43 -7 8 -12 19 -10 23 1 5
-15 27 -35 48 -20 22 -33 44 -30 49 3 6 1 7 -4 4 -16 -10 -137 55 -141 76 -5
22 -123 147 -140 147 -7 0 -12 5 -12 11 0 5 -4 8 -9 5 -9 -6 -62 31 -118 83
-20 19 -35 25 -41 19 -6 -6 -12 -5 -17 3 -5 8 -4 10 3 5 25 -15 11 3 -15 20
-53 34 -205 54 -249 31 -24 -12 -34 -12 -59 -1 -33 15 -37 15 -80 4z m-449
-1433 c19 7 18 -8 -2 -33 -8 -10 -13 -13 -9 -6 4 8 -2 12 -17 12 -18 0 -20 -2
-9 -9 9 -6 15 -26 15 -50 1 -26 6 -41 14 -41 11 0 16 -13 13 -32 0 -5 3 -8 8
-8 12 0 4 -56 -15 -96 -14 -30 -21 -34 -55 -34 -28 0 -45 7 -65 27 -25 25 -28
26 -38 9 -26 -43 -33 -48 -53 -42 -30 10 -38 37 -13 43 17 5 20 11 16 38 -4
24 0 37 14 50 13 11 18 25 14 37 -3 12 0 18 9 18 10 0 13 10 10 35 -2 20 1 44
7 55 8 15 8 20 -2 20 -8 0 -7 6 4 17 14 13 20 14 32 3 13 -10 16 -10 16 1 0 9
3 10 8 4 12 -17 48 -16 63 1 13 16 14 16 17 -4 2 -13 8 -19 18 -15z"/>
</g>
</svg>
